{
  "swagger": "2.0",
  "info": {
    "title": "AutographCreator",
    "description": "Connector which will take in a name and two pictures",
    "version": "1.0"
  },
  "host": "prod-39.westeurope.logic.azure.com",
  "basePath": "/workflows",
  "schemes": [
    "https"
  ],
  "consumes": [],
  "produces": [],
  "paths": {
    "/<< FLOW ID >>/triggers/manual/paths/invoke": {
      "post": {
        "responses": {
          "200": {
            "description": "successful operation"
          }
        },
        "parameters": [
          {
            "name": "api-version",
            "in": "query",
            "required": true,
            "type": "string",
            "default": "2016-06-01",
            "x-ms-visibility": "internal"
          },
          {
            "name": "sp",
            "in": "query",
            "required": true,
            "type": "string",
            "default": "/triggers/manual/run",
            "x-ms-visibility": "internal"
          },
          {
            "name": "sv",
            "in": "query",
            "required": true,
            "type": "string",
            "default": "1.0",
            "x-ms-visibility": "internal"
          },
          {
            "name": "sig",
            "in": "query",
            "required": true,
            "type": "string",
            "default": "<< SIGNATURE >>",
            "x-ms-visibility": "internal"
          },
          {
            "name": "person",
            "in": "query",
            "type": "string",
            "description": "Name of the person",
            "required": true
          },
          {
            "name": "autograph",
            "in": "formData",
            "type": "file",
            "description": "Autograph to upload",
            "required": true
          },
          {
            "name": "photograph",
            "in": "formData",
            "type": "file",
            "description": "Photograph to upload",
            "required": true
          }
        ],
        "summary": "Process Autograph",
        "description": "Process Autograph and pass it to SharePoint",
        "operationId": "ProcessAutograph",
        "consumes": [
          "multipart/form-data"
        ]
      }
    }
  },
  "definitions": {},
  "parameters": {},
  "responses": {},
  "securityDefinitions": {},
  "security": [],
  "tags": []
}